{
  "content": [
    {
      "id": 0,
      "name": "크라우드웍스",
      "customer_login_id": "abc@crowdworks.kr",
      "title": "",
      "progress_status": "",
      "open_status": true,
      "r_start_date": "YYYY-MM-DD",
      "r_end_date": "YYYY-MM-DD",
      "package_1depth": "",
      "package_2depth": "",
      "updated_at": "YYYY-MM-DD HH:MM",
      "bo_account_id": 0,
      "bo_account_email": "abc@crowdworks.kr",
      "bo_account_name": "홍길동"
    }
  ],
  "pageable": {
    "sort": {
      "sorted": false,
      "unsorted": true,
      "empty": true
    },
    "offset": 0,
    "pageNumber": 0,
    "pageSize": 15,
    "paged": true,
    "unpaged": false
  },
  "totalPages": 1,
  "totalElements": 7,
  "last": true,
  "number": 0,
  "sort": {
    "sorted": false,
    "unsorted": true,
    "empty": true
  },
  "size": 15,
  "numberOfElements": 7,
  "first": true,
  "empty": false
}
