{
  "id": 0,
  "progress_status": "",
  "progress_status_change_date": "YYYY-MM-DD HH:MM",
  "open_status": "",
  "open_status_change_date": "YYYY-MM-DD HH:MM",
  "bo_account_id": 0,
  "bo_account_name": "홍길동",
  "bo_account_email": "abc@crowdworks.kr"
}
